DSI - Assignment 4 - Q3
…
Total observations in each Date group,

df_agg %>% group_by(Date) %>% count()

## # A tibble: 91 x 2
## # Groups:   Date [91]
##    Date           n
##    <date>     <int>
##  1 2019-01-01    25
##  2 2019-01-02    85
##  3 2019-01-03    74
##  4 2019-01-04    95
##  5 2019-01-05   107
##  6 2019-01-06    79
##  7 2019-01-07    88
##  8 2019-01-08    92
##  9 2019-01-09    83
## 10 2019-01-10   110
## #  with 81 more rows
…
